Writing Flexible Functions in R – Mathematical Marine Ecology Lab
…
But what if users want to pass unquoted column names like filter_function(data, lifeExp, 75) instead of filter_function(data, "lifeExp", 75)?

That’s where tidy evaluation comes in…

6 What is Tidy Evaluation?

Tidy evaluation is the system that allows tidyverse functions to work with unquoted column names. It’s what makes this possible:

# This works - no quotes around column names despite `year` not being in your environment!
gapminder %>% 
  filter(year == 2007) %>% 
  select(country, continent, lifeExp, gdpPercap)

# A tibble: 142 × 4
   country     continent lifeExp gdpPercap
   <fct>       <fct>       <dbl>     <dbl>
 1 Afghanistan Asia         43.8      975.
 2 Albania     Europe       76.4     5937.
 3 Algeria     Africa       72.3     6223.
 4 Angola      Africa       42.7     4797.
 5 Argentina   Americas     75.3    12779.
 6 Australia   Oceania      81.2    34435.
 7 Austria     Europe       79.8    36126.
 8 Bahrain     Asia         75.6    29796.
 9 Bangladesh  Asia         64.1     1391.
10 Belgium     Europe       79.4    33693.
# ℹ 132 more rows
…
The function fails because column_name is treated as the literal text “column_name”, not as the variable name we passed in (year). This is where tidy evaluation and data masking comes to the rescue!

7 Data Masking

What is Data Masking?

Data masking makes column names in your data frame available as if they were regular variables. It is what allows you to write filter(gapminder, year == 2007) instead of filter(gapminder, gapminder$year == 2007). The column name year gets “masked” so it appears to exist in your current environment.

This is why you can write:

# This works - year refers to the column
gapminder %>% filter(year == 2007)

# A tibble: 142 × 6
   country     continent  year lifeExp       pop gdpPercap
   <fct>       <fct>     <int>   <dbl>     <int>     <dbl>
 1 Afghanistan Asia       2007    43.8  31889923      975.
 2 Albania     Europe     2007    76.4   3600523     5937.
 3 Algeria     Africa     2007    72.3  33333216     6223.
 4 Angola      Africa     2007    42.7  12420476     4797.
 5 Argentina   Americas   2007    75.3  40301927    12779.
 6 Australia   Oceania    2007    81.2  20434176    34435.
 7 Austria     Europe     2007    79.8   8199783    36126.
 8 Bahrain     Asia       2007    75.6    708573    29796.
 9 Bangladesh  Asia       2007    64.1 150448339     1391.
10 Belgium     Europe     2007    79.4  10392226    33693.
# ℹ 132 more rows
…
